/home/a/NetBeansProjects/boutique/src/main/java/com/mycompany/boutique2/entites/Employe.java
/home/a/NetBeansProjects/boutique/src/main/java/com/mycompany/boutique2/services/ProduitService.java
/home/a/NetBeansProjects/boutique/src/main/java/com/mycompany/boutique2/resources/CategorieResource.java
/home/a/NetBeansProjects/boutique/src/main/java/com/mycompany/boutique2/services/ProduitAcheteService.java
/home/a/NetBeansProjects/boutique/src/main/java/com/mycompany/boutique2/entites/Achat.java
/home/a/NetBeansProjects/boutique/src/main/java/com/mycompany/boutique2/resources/AchatResource.java
/home/a/NetBeansProjects/boutique/src/main/java/com/mycompany/boutique2/entites/Produit.java
/home/a/NetBeansProjects/boutique/src/main/java/com/mycompany/boutique2/services/CategorieService.java
/home/a/NetBeansProjects/boutique/src/main/java/com/mycompany/boutique2/resources/JavaEE8Resource.java
/home/a/NetBeansProjects/boutique/src/main/java/com/mycompany/boutique/BoutiqueRestConfiguration.java
/home/a/NetBeansProjects/boutique/src/main/java/com/mycompany/boutique2/resources/ClientResource.java
/home/a/NetBeansProjects/boutique/src/main/java/com/mycompany/boutique2/resources/ProduitResource.java
/home/a/NetBeansProjects/boutique/src/main/java/com/mycompany/boutique2/services/ClientService.java
/home/a/NetBeansProjects/boutique/src/main/java/com/mycompany/boutique2/services/AchatService.java
/home/a/NetBeansProjects/boutique/src/main/java/com/mycompany/boutique2/resources/ProduitAcheteResource.java
/home/a/NetBeansProjects/boutique/src/main/java/com/mycompany/boutique2/entites/Categorie.java
/home/a/NetBeansProjects/boutique/src/main/java/com/mycompany/boutique2/entites/Client.java
/home/a/NetBeansProjects/boutique/src/main/java/com/mycompany/boutique2/services/EmployeService.java
/home/a/NetBeansProjects/boutique/src/main/java/com/mycompany/boutique2/resources/EmployeResource.java
/home/a/NetBeansProjects/boutique/src/main/java/com/mycompany/boutique2/entites/Personne.java
/home/a/NetBeansProjects/boutique/src/main/java/com/mycompany/boutique2/entites/ProduitAchete.java
